-- Merging decision tree log ---
manifest
ADDED from /home/guilherme/Documents/workspace/android/bluetoothChat/Application/src/main/AndroidManifest.xml:2:1-35:12
	package
		ADDED from /home/guilherme/Documents/workspace/android/bluetoothChat/Application/src/main/AndroidManifest.xml:3:5-41
	android:versionName
		ADDED from /home/guilherme/Documents/workspace/android/bluetoothChat/Application/src/main/AndroidManifest.xml:6:5-30
		INJECTED from /home/guilherme/Documents/workspace/android/bluetoothChat/Application/src/main/AndroidManifest.xml
		INJECTED from /home/guilherme/Documents/workspace/android/bluetoothChat/Application/src/main/AndroidManifest.xml
	android:versionCode
		ADDED from /home/guilherme/Documents/workspace/android/bluetoothChat/Application/src/main/AndroidManifest.xml:5:5-28
		INJECTED from /home/guilherme/Documents/workspace/android/bluetoothChat/Application/src/main/AndroidManifest.xml
		INJECTED from /home/guilherme/Documents/workspace/android/bluetoothChat/Application/src/main/AndroidManifest.xml
	xmlns:android
		ADDED from /home/guilherme/Documents/workspace/android/bluetoothChat/Application/src/main/AndroidManifest.xml:4:5-63
uses-permission#android.permission.BLUETOOTH_ADMIN
ADDED from /home/guilherme/Documents/workspace/android/bluetoothChat/Application/src/main/AndroidManifest.xml:8:5-73
	android:name
		ADDED from /home/guilherme/Documents/workspace/android/bluetoothChat/Application/src/main/AndroidManifest.xml:8:22-71
uses-permission#android.permission.BLUETOOTH
ADDED from /home/guilherme/Documents/workspace/android/bluetoothChat/Application/src/main/AndroidManifest.xml:9:5-67
	android:name
		ADDED from /home/guilherme/Documents/workspace/android/bluetoothChat/Application/src/main/AndroidManifest.xml:9:22-65
application
ADDED from /home/guilherme/Documents/workspace/android/bluetoothChat/Application/src/main/AndroidManifest.xml:11:5-33:19
MERGED from [com.android.support:gridlayout-v7:25.0.1] /home/guilherme/Documents/workspace/android/bluetoothChat/Application/build/intermediates/exploded-aar/com.android.support/gridlayout-v7/25.0.1/AndroidManifest.xml:22:5-20
MERGED from [com.android.support:cardview-v7:25.0.1] /home/guilherme/Documents/workspace/android/bluetoothChat/Application/build/intermediates/exploded-aar/com.android.support/cardview-v7/25.0.1/AndroidManifest.xml:22:5-20
MERGED from [com.android.support:appcompat-v7:25.0.1] /home/guilherme/Documents/workspace/android/bluetoothChat/Application/build/intermediates/exploded-aar/com.android.support/appcompat-v7/25.0.1/AndroidManifest.xml:25:5-20
MERGED from [com.android.support:support-v4:25.0.1] /home/guilherme/Documents/workspace/android/bluetoothChat/Application/build/intermediates/exploded-aar/com.android.support/support-v4/25.0.1/AndroidManifest.xml:25:5-20
MERGED from [com.android.support:support-fragment:25.0.1] /home/guilherme/Documents/workspace/android/bluetoothChat/Application/build/intermediates/exploded-aar/com.android.support/support-fragment/25.0.1/AndroidManifest.xml:25:5-20
MERGED from [com.android.support:support-media-compat:25.0.1] /home/guilherme/Documents/workspace/android/bluetoothChat/Application/build/intermediates/exploded-aar/com.android.support/support-media-compat/25.0.1/AndroidManifest.xml:25:5-20
MERGED from [com.android.support:support-core-ui:25.0.1] /home/guilherme/Documents/workspace/android/bluetoothChat/Application/build/intermediates/exploded-aar/com.android.support/support-core-ui/25.0.1/AndroidManifest.xml:25:5-20
MERGED from [com.android.support:support-core-utils:25.0.1] /home/guilherme/Documents/workspace/android/bluetoothChat/Application/build/intermediates/exploded-aar/com.android.support/support-core-utils/25.0.1/AndroidManifest.xml:25:5-20
MERGED from [com.android.support:animated-vector-drawable:25.0.1] /home/guilherme/Documents/workspace/android/bluetoothChat/Application/build/intermediates/exploded-aar/com.android.support/animated-vector-drawable/25.0.1/AndroidManifest.xml:22:5-20
MERGED from [com.android.support:support-vector-drawable:25.0.1] /home/guilherme/Documents/workspace/android/bluetoothChat/Application/build/intermediates/exploded-aar/com.android.support/support-vector-drawable/25.0.1/AndroidManifest.xml:23:5-20
MERGED from [com.android.support:support-compat:25.0.1] /home/guilherme/Documents/workspace/android/bluetoothChat/Application/build/intermediates/exploded-aar/com.android.support/support-compat/25.0.1/AndroidManifest.xml:25:5-20
	android:label
		ADDED from /home/guilherme/Documents/workspace/android/bluetoothChat/Application/src/main/AndroidManifest.xml:14:9-41
	android:allowBackup
		ADDED from /home/guilherme/Documents/workspace/android/bluetoothChat/Application/src/main/AndroidManifest.xml:12:9-35
	android:icon
		ADDED from /home/guilherme/Documents/workspace/android/bluetoothChat/Application/src/main/AndroidManifest.xml:13:9-43
	android:theme
		ADDED from /home/guilherme/Documents/workspace/android/bluetoothChat/Application/src/main/AndroidManifest.xml:15:9-40
activity#br.com.senai.bluetoothchat.TelaPrincipal
ADDED from /home/guilherme/Documents/workspace/android/bluetoothChat/Application/src/main/AndroidManifest.xml:17:9-25:20
	android:label
		ADDED from /home/guilherme/Documents/workspace/android/bluetoothChat/Application/src/main/AndroidManifest.xml:20:13-45
	android:configChanges
		ADDED from /home/guilherme/Documents/workspace/android/bluetoothChat/Application/src/main/AndroidManifest.xml:19:13-63
	android:name
		ADDED from /home/guilherme/Documents/workspace/android/bluetoothChat/Application/src/main/AndroidManifest.xml:18:13-42
intent-filter#android.intent.action.MAIN+android.intent.category.LAUNCHER
ADDED from /home/guilherme/Documents/workspace/android/bluetoothChat/Application/src/main/AndroidManifest.xml:21:13-24:29
action#android.intent.action.MAIN
ADDED from /home/guilherme/Documents/workspace/android/bluetoothChat/Application/src/main/AndroidManifest.xml:22:17-68
	android:name
		ADDED from /home/guilherme/Documents/workspace/android/bluetoothChat/Application/src/main/AndroidManifest.xml:22:25-66
category#android.intent.category.LAUNCHER
ADDED from /home/guilherme/Documents/workspace/android/bluetoothChat/Application/src/main/AndroidManifest.xml:23:17-76
	android:name
		ADDED from /home/guilherme/Documents/workspace/android/bluetoothChat/Application/src/main/AndroidManifest.xml:23:27-74
activity#br.com.senai.bluetoothchat.ListaDispositivosActivity
ADDED from /home/guilherme/Documents/workspace/android/bluetoothChat/Application/src/main/AndroidManifest.xml:27:9-31:67
	android:label
		ADDED from /home/guilherme/Documents/workspace/android/bluetoothChat/Application/src/main/AndroidManifest.xml:30:13-59
	android:configChanges
		ADDED from /home/guilherme/Documents/workspace/android/bluetoothChat/Application/src/main/AndroidManifest.xml:29:13-63
	android:theme
		ADDED from /home/guilherme/Documents/workspace/android/bluetoothChat/Application/src/main/AndroidManifest.xml:31:13-65
	android:name
		ADDED from /home/guilherme/Documents/workspace/android/bluetoothChat/Application/src/main/AndroidManifest.xml:28:13-54
uses-sdk
INJECTED from /home/guilherme/Documents/workspace/android/bluetoothChat/Application/src/main/AndroidManifest.xml reason: use-sdk injection requested
MERGED from [com.android.support:gridlayout-v7:25.0.1] /home/guilherme/Documents/workspace/android/bluetoothChat/Application/build/intermediates/exploded-aar/com.android.support/gridlayout-v7/25.0.1/AndroidManifest.xml:20:5-43
MERGED from [com.android.support:cardview-v7:25.0.1] /home/guilherme/Documents/workspace/android/bluetoothChat/Application/build/intermediates/exploded-aar/com.android.support/cardview-v7/25.0.1/AndroidManifest.xml:20:5-43
MERGED from [com.android.support:appcompat-v7:25.0.1] /home/guilherme/Documents/workspace/android/bluetoothChat/Application/build/intermediates/exploded-aar/com.android.support/appcompat-v7/25.0.1/AndroidManifest.xml:21:5-23:78
MERGED from [com.android.support:support-v4:25.0.1] /home/guilherme/Documents/workspace/android/bluetoothChat/Application/build/intermediates/exploded-aar/com.android.support/support-v4/25.0.1/AndroidManifest.xml:21:5-23:54
MERGED from [com.android.support:support-fragment:25.0.1] /home/guilherme/Documents/workspace/android/bluetoothChat/Application/build/intermediates/exploded-aar/com.android.support/support-fragment/25.0.1/AndroidManifest.xml:21:5-23:60
MERGED from [com.android.support:support-media-compat:25.0.1] /home/guilherme/Documents/workspace/android/bluetoothChat/Application/build/intermediates/exploded-aar/com.android.support/support-media-compat/25.0.1/AndroidManifest.xml:21:5-23:63
MERGED from [com.android.support:support-core-ui:25.0.1] /home/guilherme/Documents/workspace/android/bluetoothChat/Application/build/intermediates/exploded-aar/com.android.support/support-core-ui/25.0.1/AndroidManifest.xml:21:5-23:58
MERGED from [com.android.support:support-core-utils:25.0.1] /home/guilherme/Documents/workspace/android/bluetoothChat/Application/build/intermediates/exploded-aar/com.android.support/support-core-utils/25.0.1/AndroidManifest.xml:21:5-23:61
MERGED from [com.android.support:animated-vector-drawable:25.0.1] /home/guilherme/Documents/workspace/android/bluetoothChat/Application/build/intermediates/exploded-aar/com.android.support/animated-vector-drawable/25.0.1/AndroidManifest.xml:20:5-44
MERGED from [com.android.support:support-vector-drawable:25.0.1] /home/guilherme/Documents/workspace/android/bluetoothChat/Application/build/intermediates/exploded-aar/com.android.support/support-vector-drawable/25.0.1/AndroidManifest.xml:21:5-43
MERGED from [com.android.support:support-compat:25.0.1] /home/guilherme/Documents/workspace/android/bluetoothChat/Application/build/intermediates/exploded-aar/com.android.support/support-compat/25.0.1/AndroidManifest.xml:21:5-23:58
	tools:overrideLibrary
		ADDED from [com.android.support:appcompat-v7:25.0.1] /home/guilherme/Documents/workspace/android/bluetoothChat/Application/build/intermediates/exploded-aar/com.android.support/appcompat-v7/25.0.1/AndroidManifest.xml:23:9-75
	android:targetSdkVersion
		INJECTED from /home/guilherme/Documents/workspace/android/bluetoothChat/Application/src/main/AndroidManifest.xml
		INJECTED from /home/guilherme/Documents/workspace/android/bluetoothChat/Application/src/main/AndroidManifest.xml
	android:minSdkVersion
		INJECTED from /home/guilherme/Documents/workspace/android/bluetoothChat/Application/src/main/AndroidManifest.xml
		INJECTED from /home/guilherme/Documents/workspace/android/bluetoothChat/Application/src/main/AndroidManifest.xml
